{"results": [{"id": 480211, "adult": true}, {"id": 801688, "adult": false}, {"id": 775699, "adult": false}, {"id": 1194460, "adult": false}, {"id": 1184500, "adult": false}, {"id": 929736, "adult": false}, {"id": null, "adult": null}, {"id": 1121891, "adult": false}, {"id": 787761, "adult": false}, {"id": 737885, "adult": false}, {"id": 1172814, "adult": false}, {"id": 993156, "adult": false}, {"id": 1057915, "adult": false}, {"id": 1094482, "adult": false}, {"id": 1109457, "adult": false}, {"id": 1148643, "adult": false}, {"id": 1173970, "adult": false}, {"id": 1176793, "adult": false}, {"id": 1184037, "adult": false}, {"id": 1186466, "adult": false}, {"id": 1186676, "adult": false}, {"id": 1186850, "adult": false}, {"id": 1186851, "adult": false}, {"id": 1186854, "adult": false}, {"id": 1186868, "adult": false}, {"id": 1187500, "adult": false}, {"id": 1190194, "adult": false}, {"id": 1190291, "adult": false}, {"id": 1190306, "adult": false}, {"id": 1190316, "adult": false}, {"id": 1192182, "adult": false}, {"id": 1192285, "adult": false}, {"id": 1192513, "adult": false}, {"id": 1192516, "adult": false}, {"id": 1192552, "adult": false}, {"id": 1192584, "adult": false}, {"id": 1192585, "adult": false}, {"id": 1192588, "adult": false}, {"id": 1192590, "adult": false}, {"id": 1192592, "adult": false}, {"id": 1192594, "adult": false}, {"id": 1192788, "adult": false}, {"id": 1193083, "adult": false}, {"id": 1194118, "adult": false}, {"id": 507089, "adult": false}, {"id": 726209, "adult": false}, {"id": 1173558, "adult": false}, {"id": 1192769, "adult": false}, {"id": 1194024, "adult": false}, {"id": 1193962, "adult": false}, {"id": 1193983, "adult": false}, {"id": 1194025, "adult": false}, {"id": 1194402, "adult": false}, {"id": 1194100, "adult": false}, {"id": 1194102, "adult": false}, {"id": 1194106, "adult": false}, {"id": 1194109, "adult": false}, {"id": 1194114, "adult": false}, {"id": 1194019, "adult": false}, {"id": 1125611, "adult": false}, {"id": 1193953, "adult": false}, {"id": 1194423, "adult": false}, {"id": 1194420, "adult": true}, {"id": 1194465, "adult": false}, {"id": 370970, "adult": false}, {"id": 293187, "adult": false}, {"id": 1194455, "adult": null}, {"id": 1181429, "adult": false}, {"id": 1194467, "adult": false}, {"id": 936229, "adult": false}, {"id": 410994, "adult": false}, {"id": 605456, "adult": false}, {"id": 1118801, "adult": false}, {"id": 782565, "adult": false}, {"id": 483297, "adult": false}, {"id": 429467, "adult": false}, {"id": 692024, "adult": false}, {"id": 657644, "adult": false}, {"id": 1153423, "adult": true}, {"id": 330885, "adult": false}, {"id": 368006, "adult": false}, {"id": 1028083, "adult": true}, {"id": 153860, "adult": false}, {"id": 197999, "adult": false}, {"id": 411629, "adult": false}, {"id": 709512, "adult": false}, {"id": 793511, "adult": false}, {"id": 924482, "adult": false}, {"id": 390880, "adult": false}, {"id": 1137325, "adult": false}, {"id": 335077, "adult": false}, {"id": 1045701, "adult": false}, {"id": 978006, "adult": false}, {"id": 823999, "adult": false}, {"id": 665568, "adult": false}, {"id": 665567, "adult": false}, {"id": 610074, "adult": false}, {"id": 1108389, "adult": false}, {"id": 846862, "adult": false}, {"id": 763165, "adult": false}], "page": 1, "total_pages": 55, "total_results": 5433}